<svg width="18" height="18" viewBox="0 0 18 18" fill="none" xmlns="http://www.w3.org/2000/svg">
<path d="M11.07 9.94129C10.4982 9.48918 9.86718 9.14506 9.20435 8.89941C10.6539 8.08094 11.6471 6.54459 11.6471 4.76471C11.6471 2.13776 9.50929 0 6.88235 0C4.25541 0 2.11765 2.13776 2.11765 4.76471C2.11765 6.54565 3.11188 8.08306 4.56247 8.90047C1.88471 9.88094 0 12.5502 0 15.5552C0 16.9031 1.09588 18 2.44482 18H11.3209C12.6688 18 13.7658 16.9031 13.7658 15.5552V15.4853C13.7647 13.3475 12.7578 11.2754 11.07 9.94129ZM3.17541 4.76471C3.17541 2.72118 4.83776 1.05882 6.88129 1.05882C8.92482 1.05882 10.5872 2.72118 10.5872 4.76471C10.5872 6.80824 8.92482 8.47059 6.88129 8.47059C4.83776 8.47059 3.17541 6.80824 3.17541 4.76471ZM12.7059 15.5552C12.7059 16.3196 12.0844 16.9412 11.3199 16.9412H2.44271C1.67824 16.9412 1.05671 16.3196 1.05671 15.5552C1.05671 12.7694 2.93506 10.3024 5.52494 9.68929C5.97706 9.58235 6.42918 9.52941 6.87494 9.52835C6.87706 9.52835 6.87812 9.52941 6.88024 9.52941C6.88447 9.52941 6.88871 9.52835 6.894 9.52835C8.16141 9.52835 9.37694 9.95294 10.4125 10.7714C11.8461 11.9065 12.7038 13.6684 12.7038 15.4853L12.7059 15.5552Z" transform="translate(2.11768)" fill="#1493ff"/>
</svg>
